/* -*- C -*- */
// Copyright (C) 2009 Johan Hake
//
// This file is part of DOLFIN.
//
// DOLFIN is free software: you can redistribute it and/or modify
// it under the terms of the GNU Lesser General Public License as published by
// the Free Software Foundation, either version 3 of the License, or
// (at your option) any later version.
//
// DOLFIN is distributed in the hope that it will be useful,
// but WITHOUT ANY WARRANTY; without even the implied warranty of
// MERCHANTABILITY or FITNESS FOR A PARTICULAR PURPOSE. See the
// GNU Lesser General Public License for more details.
//
// You should have received a copy of the GNU Lesser General Public License
// along with DOLFIN. If not, see <http://www.gnu.org/licenses/>.
//
// First added:  2009-08-31
// Last changed: 2014-05-20

//=============================================================================
// In this file we declare what types that should be able to be passed using a
// std::vector typemap.
//
// We want to avoid using SWIGs own typemaps in std_vector.i,
// as we really just want to be able to pass argument, in and a out, using
// std::vector. We do not want to work with a proxy type of std::vector<Foo>,
// as the interface reflects the C++ type and is hence not 'pythonic'.
//=============================================================================

//-----------------------------------------------------------------------------
// Declare a dummy vector class
// This makes SWIG aware of the template type
//-----------------------------------------------------------------------------
namespace std
{
  template <typename T> class vector
  {
  };
}

//-----------------------------------------------------------------------------
// User macro for defining in typemaps for std::vector of pointers or
// shared_pointer to some DOLFIN type
//-----------------------------------------------------------------------------
%define TYPEMAPS_STD_VECTOR_OF_POINTERS(TYPE)

//-----------------------------------------------------------------------------
// Make SWIG aware of the shared_ptr version of TYPE
//-----------------------------------------------------------------------------
%types(std::shared_ptr<dolfin::TYPE>*);

//-----------------------------------------------------------------------------
// Run the macros for the combination of const and no const of
// {const} std::vector<{const} dolfin::TYPE *>
//-----------------------------------------------------------------------------
IN_TYPEMAP_STD_VECTOR_OF_POINTERS(TYPE,,)
IN_TYPEMAP_STD_VECTOR_OF_POINTERS(TYPE,const,)
IN_TYPEMAP_STD_VECTOR_OF_POINTERS(TYPE,,const)
IN_TYPEMAP_STD_VECTOR_OF_POINTERS(TYPE,const,const)

%enddef

//-----------------------------------------------------------------------------
// Macro for defining in typemaps for
// {const} std::vector<{const} dolfin::TYPE *>
// using a Python List of TYPE
//-----------------------------------------------------------------------------
%define IN_TYPEMAP_STD_VECTOR_OF_POINTERS(TYPE,CONST,CONST_VECTOR)

//-----------------------------------------------------------------------------
// The typecheck
//-----------------------------------------------------------------------------
%typecheck(SWIG_TYPECHECK_POINTER) CONST_VECTOR std::vector<CONST dolfin::TYPE *>
{
  $1 = PyList_Check($input) ? 1 : 0;
}

//-----------------------------------------------------------------------------
// The std::vector<Type*> typemap
//-----------------------------------------------------------------------------
%typemap (in) CONST_VECTOR std::vector<CONST dolfin::TYPE *> (
std::vector<CONST dolfin::TYPE *> tmp_vec,
std::shared_ptr<dolfin::TYPE> tempshared,
dolfin::TYPE * arg)
{
  // IN_TYPEMAP_STD_VECTOR_OF_POINTERS(TYPE, CONST, CONST_VECTOR)
  if (!PyList_Check($input))
  {
    SWIG_exception(SWIG_TypeError, "list of TYPE expected");
  }
  int size = PyList_Size($input);
  int res = 0;
  PyObject * py_item = 0;
  void * itemp = 0;
  int newmem = 0;
  tmp_vec.reserve(size);
  for (int i = 0; i < size; i++)
  {
    py_item = PyList_GetItem($input,i);
    res = SWIG_ConvertPtr(py_item, &itemp, $descriptor(dolfin::TYPE *), 0);
    if (SWIG_IsOK(res))
      tmp_vec.push_back(reinterpret_cast<dolfin::TYPE *>(itemp));
    else
    {
      // If failed with normal pointer conversion then
      // try with shared_ptr conversion
      newmem = 0;
      res = SWIG_ConvertPtrAndOwn(py_item, &itemp, $descriptor(std::shared_ptr< dolfin::TYPE > *), 0, &newmem);
      if (!SWIG_IsOK(res))
      {
        SWIG_exception(SWIG_TypeError, "list of TYPE expected (Bad conversion)");
      }
      if (itemp)
      {
	tempshared = *(reinterpret_cast< std::shared_ptr<dolfin::TYPE> * >(itemp));
	tmp_vec.push_back(tempshared.get());
      }
      // If we need to release memory
      if (newmem & SWIG_CAST_NEW_MEMORY)
	delete reinterpret_cast< std::shared_ptr< dolfin::TYPE > * >(itemp);
    }
  }
  $1 = tmp_vec;
}


//-----------------------------------------------------------------------------
// The std::vector<Type*> typecheck
//-----------------------------------------------------------------------------
%typecheck(SWIG_TYPECHECK_POINTER) CONST_VECTOR std::vector<std::shared_ptr<CONST dolfin::TYPE> >
{
  $1 = PyList_Check($input) ? 1 : 0;
}

//-----------------------------------------------------------------------------
// The std::vector<shared_ptr<Type> > typemap
//-----------------------------------------------------------------------------
%typemap (in) CONST_VECTOR std::vector<std::
              shared_ptr<CONST dolfin::TYPE> > (
std::vector<std::shared_ptr<CONST dolfin::TYPE> > tmp_vec,
std::shared_ptr<dolfin::TYPE> tempshared)
{
  // IN_TYPEMAP_STD_VECTOR_OF_POINTERS(TYPE, CONST, CONST_VECTOR), shared_ptr version
  if (!PyList_Check($input))
  {
    SWIG_exception(SWIG_TypeError, "list of TYPE expected");
  }

  int size = PyList_Size($input);
  int res = 0;
  PyObject * py_item = 0;
  void * itemp = 0;
  int newmem = 0;
  tmp_vec.reserve(size);
  for (int i = 0; i < size; i++)
  {
    newmem = 0;
    py_item = PyList_GetItem($input, i);
    res = SWIG_ConvertPtrAndOwn(py_item, &itemp, $descriptor(std::shared_ptr< dolfin::TYPE > *), 0, &newmem);
    if (!SWIG_IsOK(res))
    {
      SWIG_exception(SWIG_TypeError, "expected a list of shared_ptr<TYPE> (Bad conversion)");
    }
    if (itemp)
    {
      tempshared = *(reinterpret_cast<std::shared_ptr< dolfin::TYPE> *>(itemp));
      tmp_vec.push_back(tempshared);
    }
    if (newmem & SWIG_CAST_NEW_MEMORY)
    {
      delete reinterpret_cast<std::shared_ptr< dolfin::TYPE> *>(itemp);
    }
  }
  $1 = tmp_vec;
}

//-----------------------------------------------------------------------------
// The std::vector<shared_ptr<Type> > typecheck
//-----------------------------------------------------------------------------
%typecheck(SWIG_TYPECHECK_POINTER) CONST_VECTOR std::vector<std::shared_ptr<CONST dolfin::TYPE> >
{
  $1 = PyList_Check($input) ? 1 : 0;
}

//-----------------------------------------------------------------------------
// Out typemap of std::vector<shared_ptr<Type> >
//-----------------------------------------------------------------------------
%typemap (out) std::vector<std::
               shared_ptr<CONST dolfin::TYPE> > (
std::shared_ptr<CONST dolfin::TYPE> tempshared,
PyObject* ret_list,
PyObject* list_item)
{
  // OUT_TYPEMAP_STD_VECTOR_OF_POINTERS(TYPE, CONST, CONST_VECTOR), shared_ptr version
  int size = (&$1)->size();
  ret_list = PyList_New(size);

  // Iterate over the vector and fill list
  for (int i=0; i<size; i++)
  {
    // Grab the item
    tempshared = (&$1)->operator[](i);

    // Create a new ptr while increasing the reference.
    // NOTE: Const cast because SWIG does not know how to handle non
    // NOTE: const shared_ptr types
    std::shared_ptr< dolfin::TYPE >* smartresult = tempshared ? new std::shared_ptr< dolfin::TYPE >(std::const_pointer_cast<dolfin::TYPE>(tempshared)) : 0;
    list_item = SWIG_NewPointerObj(SWIG_as_voidptr(smartresult), $descriptor(std::shared_ptr< dolfin::TYPE > *), SWIG_POINTER_OWN);
    PyList_SET_ITEM(ret_list, i, list_item);
  }

  // Assign the result
  $result = ret_list;
}

%enddef


//-----------------------------------------------------------------------------
// Macro for defining an in typemap for a const std::vector& of primitives
// The typemaps takes a NumPy array of that primitive
//
// TYPE       : The primitive type
// TYPE_UPPER : The SWIG specific name of the type used in the array type checks
//              values SWIG use: INT32 for integer, DOUBLE for double aso.
// ARG_NAME   : The name of the argument that will be maped as an 'argout' argument
// NUMPY_TYPE : The type of the NumPy array that will be returned
// TYPE_NAME  : The name of the pointer type, 'double' for 'double', 'uint' for
//              'dolfin::uint'
// DESCR      : The char descriptor of the NumPy type
//-----------------------------------------------------------------------------
%define IN_TYPEMAP_STD_VECTOR_OF_PRIMITIVES(TYPE, TYPE_UPPER, ARG_NAME, \
                                            NUMPY_TYPE, TYPE_NAME, DESCR)

// The typecheck
%typecheck(SWIG_TYPECHECK_ ## TYPE_UPPER ## _ARRAY)  \
const std::vector<TYPE>&  ARG_NAME
{
  $1 = PyArray_Check($input) ? PyArray_TYPE(reinterpret_cast<PyArrayObject*>($input)) == NUMPY_TYPE : 0;
}

// The typemap
%typemap(in) const std::vector<TYPE>& ARG_NAME (std::vector<TYPE> temp)
{
  // IN_TYPEMAP_STD_VECTOR_OF_PRIMITIVES(TYPE, TYPE_UPPER, ARG_NAME,
  //                                     NUMPY_TYPE, TYPE_NAME, DESCR)
  {
    if (!PyArray_Check($input))
    {
      SWIG_exception(SWIG_TypeError, "(2) numpy array of 'TYPE_NAME' expected. "\
		     "Make sure that the numpy array use dtype=DESCR.");
    }

    PyArrayObject *xa = reinterpret_cast<PyArrayObject*>($input);
    if ( PyArray_TYPE(xa) != NUMPY_TYPE )
    {
      SWIG_exception(SWIG_TypeError, "(1) numpy array of 'TYPE_NAME' expected."	\
		     " Make sure that the numpy array use dtype=DESCR.");
    }
    const std::size_t size = PyArray_DIM(xa, 0);
    temp.resize(size);
    TYPE* array = static_cast<TYPE*>(PyArray_DATA(xa));
    if (PyArray_ISCONTIGUOUS(xa))
    {
      std::copy(array, array + size, temp.begin());
    }
    else
    {
      const npy_intp strides = PyArray_STRIDE(xa, 0)/sizeof(TYPE);
      for (std::size_t i = 0; i < size; i++)
	temp[i] = array[i*strides];
    }
    $1 = &temp;
  }
}

%enddef

//-----------------------------------------------------------------------------
// Macro for defining an argout typemap for a std::vector of primitives
// The typemap returns a NumPy array of the primitive
//
// TYPE       : The primitive type
// TYPE_UPPER : The SWIG specific name of the type used in the array type checks
//              values SWIG use: INT32 for integer, DOUBLE for double aso.
// ARG_NAME   : The name of the argument that will be maped as an 'argout' argument
// NUMPY_TYPE : The type of the NumPy array that will be returned
//-----------------------------------------------------------------------------
%define ARGOUT_TYPEMAP_STD_VECTOR_OF_PRIMITIVES(TYPE, TYPE_UPPER, ARG_NAME, \
                                                NUMPY_TYPE)

//-----------------------------------------------------------------------------
// In typemap removing the argument from the expected in list
//-----------------------------------------------------------------------------
%typemap (in,numinputs=0) std::vector<TYPE>& ARG_NAME (std::vector<TYPE> vec_temp)
{
  // ARGOUT_TYPEMAP_STD_VECTOR_OF_PRIMITIVES(TYPE, TYPE_UPPER, ARG_NAME, NUMPY_TYPE)
  $1 = &vec_temp;
}

//-----------------------------------------------------------------------------
// Argout typemap, returning a NumPy array for the std::vector<TYPE>
//-----------------------------------------------------------------------------
%typemap(argout) std::vector<TYPE>& ARG_NAME
{
  npy_intp size = $1->size();
  PyArrayObject *ret = reinterpret_cast<PyArrayObject*>(PyArray_SimpleNew(1, &size, NUMPY_TYPE));
  TYPE* data = static_cast<TYPE*>(PyArray_DATA(ret));
  for (int i = 0; i < size; ++i)
    data[i] = (*$1)[i];

  // Append the output to $result
  %append_output(PyArray_Return(ret));
}

%enddef

//-----------------------------------------------------------------------------
// Macro for defining an in typemap for a std::vector of primitives passed by
// value
//
// TYPE       : The primitive type
// TYPE_UPPER : The SWIG specific name of the type used in the array type checks
//              values SWIG use: INT32 for integer, DOUBLE for double aso.
// ARG_NAME   : The name of the argument that will be maped as an 'argout'
//              argument
// TYPE_NAME  : The name of the pointer type, 'double' for 'double', 'uint' for
//              'dolfin::uint'
// SEQ_LENGTH : An optional sequence length argument. If set to a negative
//              number
//              will no length check be made
//-----------------------------------------------------------------------------
%define PY_SEQUENCE_OF_SCALARS_TO_VECTOR_OF_PRIMITIVES(TYPE, TYPE_UPPER, \
                                              ARG_NAME, TYPE_NAME, SEQ_LENGTH)

%typecheck(SWIG_TYPECHECK_ ## TYPE_UPPER ## _ARRAY) std::vector<TYPE> ARG_NAME
{
  $1 = PySequence_Check($input) ? 1 : 0;
}

%typemap (in, fragment=Py_convert_frag(TYPE_NAME)) std::vector<TYPE> ARG_NAME
(std::vector<TYPE> tmp_vec, PyObject* item, TYPE value, std::size_t i)
{
  // PY_SEQUENCE_OF_SCALARS_TO_VECTOR_OF_PRIMITIVES(TYPE, TYPE_UPPER,
  //                                    ARG_NAME, TYPE_NAME, SEQ_LENGTH)

  // A first sequence test
  if (!PySequence_Check($input))
  {
    SWIG_exception(SWIG_TypeError, "expected a sequence for argument $argnum");
  }

  // Get sequence length
  Py_ssize_t pyseq_length = PySequence_Size($input);
  if (SEQ_LENGTH >= 0 && pyseq_length > SEQ_LENGTH)
  {
    SWIG_exception(SWIG_TypeError, "expected a sequence with length "	\
		   "SEQ_LENGTH for argument $argnum");
  }

  tmp_vec.reserve(pyseq_length);
  for (i = 0; i < pyseq_length; i++)
  {
    item = PySequence_GetItem($input, i);
    if(!SWIG_IsOK(Py_convert_ ## TYPE_NAME(item, value)))
    {
      Py_DECREF(item);
      SWIG_exception(SWIG_TypeError, "expected items of sequence to be of type "\
		     "\"TYPE_NAME\" in argument $argnum");
    }
    tmp_vec.push_back(value);
    Py_DECREF(item);
  }
  $1 = tmp_vec;
}
%enddef

//-----------------------------------------------------------------------------
// Macro for out typemaps of primitives of const std::vector<TYPE>& It returns
// readonly NumPy array
//
// TYPE       : The primitive type
// NUMPY_TYPE : The corresponding NumPy type
//-----------------------------------------------------------------------------
%define OUT_TYPEMAP_STD_VECTOR_OF_PRIMITIVES(TYPE, NUMPY_TYPE)

%typemap(out) std::vector<TYPE>
{
  // OUT_TYPEMAP_STD_VECTOR_OF_PRIMITIVES(TYPE, NUMPY_TYPE)
  npy_intp adims = $1.size();

  $result = PyArray_SimpleNew(1, &adims, NUMPY_TYPE);
  TYPE* data = static_cast<TYPE*>(PyArray_DATA(reinterpret_cast<PyArrayObject*>($result)));
  std::copy($1.begin(), $1.end(), data);

}

%typemap(out) const std::vector<TYPE> &
{
  // OUT_TYPEMAP_STD_VECTOR_OF_PRIMITIVES(TYPE, NUMPY_TYPE) const std::vector<TYPE> &
  npy_intp adims = $1->size();

  $result = PyArray_SimpleNew(1, &adims, NUMPY_TYPE);
  TYPE* data = static_cast<TYPE*>(PyArray_DATA(reinterpret_cast<PyArrayObject*>($result)));
  std::copy($1->begin(), $1->end(), data);
}

%enddef

//-----------------------------------------------------------------------------
// Macro for out typemaps of primitives of std::vector<TYPE> It returns a
// NumPy array vith a view. This is writable for const vectors and writable for
// non-const ones.
//
// TYPE      : The primitive type
// TYPE_NAME : The name of the pointer type, 'double' for 'double', 'uint' for
//             'dolfin::uint'
//-----------------------------------------------------------------------------
%define OUT_TYPEMAP_STD_VECTOR_OF_PRIMITIVES_REFERENCE(TYPE, TYPE_NAME)

%typemap(out, fragment=make_numpy_array_frag(1, TYPE_NAME)) const std::vector<TYPE>&
{
  // OUT_TYPEMAP_STD_VECTOR_OF_PRIMITIVES_REFERENCE(TYPE, TYPE_NAME) const version
  $result = %make_numpy_array(1, TYPE_NAME)($1->size(), &($1->operator[](0)), false);
}

%typemap(out, fragment=make_numpy_array_frag(1, TYPE_NAME)) std::vector<TYPE>&
{
  // OUT_TYPEMAP_STD_VECTOR_OF_PRIMITIVES_REFERENCE(TYPE, TYPE_NAME)
  $result = %make_numpy_array(1, TYPE_NAME)($1->size(), &($1->operator[](0)), true);
}

%enddef

%define IN_TYPEMAP_STD_VECTOR_OF_SMALL_DOLFIN_TYPES(TYPE)
//-----------------------------------------------------------------------------
// Typemap for const std::vector<dolfin::TYPE>& used for example in
// IntersectionOperator. Expects a list of Points
//-----------------------------------------------------------------------------
%typecheck(SWIG_TYPECHECK_POINTER) const std::vector<dolfin::TYPE>&
{
  $1 = PyList_Check($input) ? 1 : 0;
}

%typemap (in) const std::vector<dolfin::TYPE>& (std::vector<dolfin::TYPE> tmp_vec)
{
  // IN_TYPEMAP_STD_VECTOR_OF_SMALL_DOLFIN_TYPES, TYPE
  // A first sequence test
  if (!PyList_Check($input))
  {
    SWIG_exception(SWIG_TypeError, "expected a list of TYPE for argument $argnum");
  }

  int size = PyList_Size($input);
  int res = 0;
  PyObject * py_item = 0;
  void * itemp = 0;
  tmp_vec.reserve(size);
  for (int i = 0; i < size; i++)
  {
    py_item = PyList_GetItem($input,i);
    res = SWIG_ConvertPtr(py_item, &itemp, $descriptor(dolfin::TYPE*), 0);
    if (SWIG_IsOK(res))
    {
      tmp_vec.push_back(*reinterpret_cast<dolfin::TYPE *>(itemp));
    }
    else
    {
      SWIG_exception(SWIG_TypeError, "expected a list of TYPE for argument $argnum, (Bad conversion)");
    }
  }
  $1 = &tmp_vec;
}
%enddef

//-----------------------------------------------------------------------------
// Macro for defining an in typemap for const std::vector<std::vector<TYPE> >&
// where TYPE is a primitive
//
// TYPE       : The primitive type
// TYPE_UPPER : The SWIG specific name of the type used in the array type checks
//              values SWIG use: INT32 for integer, DOUBLE for double aso.
// ARG_NAME   : The name of the argument that will be maped as an 'argout' argument
// TYPE_NAME  : The name of the pointer type, 'double' for 'double', 'uint' for
//              'dolfin::uint'
//-----------------------------------------------------------------------------
%define IN_TYPEMAP_STD_VECTOR_OF_STD_VECTOR_OF_PRIMITIVES(TYPE, TYPE_UPPER, \
                                                          ARG_NAME, TYPE_NAME)

%typecheck(SWIG_TYPECHECK_ ## TYPE_UPPER ## _ARRAY) const std::vector<std::vector<TYPE> >& ARG_NAME
{
  $1 = PySequence_Check($input) ? 1 : 0;
}

%typemap (in, fragment=Py_convert_frag(TYPE_NAME)) const std::vector<std::vector<TYPE> >& ARG_NAME (std::vector<std::vector<TYPE> > tmp_vec, std::vector<TYPE> inner_vec, PyObject* inner_list, PyObject* item, TYPE value, std::size_t i, std::size_t j)
{
  // IN_TYPEMAP_STD_VECTOR_OF_STD_VECTOR_OF_PRIMITIVES(TYPE, TYPE_UPPER,
  //                                    ARG_NAME, TYPE_NAME)

  // A first sequence test
  if (!PySequence_Check($input))
  {
    SWIG_exception(SWIG_TypeError, "expected a sequence for argument $argnum");
  }

  // Get outer sequence length
  Py_ssize_t pyseq_length_0 = PySequence_Size($input);

  tmp_vec.reserve(pyseq_length_0);
  for (i = 0; i < pyseq_length_0; i++)
  {
    inner_list = PySequence_GetItem($input, i);

    // Check type of inner list
    if (!PySequence_Check(inner_list))
    {
      Py_DECREF(inner_list);
      SWIG_exception(SWIG_TypeError, "expected a sequence of sequences for argument $argnum");
    }

    // Get inner sequence length
    Py_ssize_t pyseq_length_1 = PySequence_Size(inner_list);

    inner_vec.reserve(pyseq_length_1);
    for (j = 0; j < pyseq_length_1; j++)
    {
      item = PySequence_GetItem(inner_list, j);

      if(!SWIG_IsOK(Py_convert_ ## TYPE_NAME(item, value)))
      {
        Py_DECREF(item);
        SWIG_exception(SWIG_TypeError, "expected items of inner sequence to be of type " \
                 "\"TYPE_NAME\" in argument $argnum");
      }
      inner_vec.push_back(value);
      Py_DECREF(item);
    }

    // Store and clear inner vec
    tmp_vec.push_back(inner_vec);
    inner_vec.clear();
    Py_DECREF(inner_list);
  }
  $1 = &tmp_vec;
}
%enddef

//-----------------------------------------------------------------------------
// Out typemap for std::vector<std::pair<std:string, std:string>
//-----------------------------------------------------------------------------
%typemap(out) std::vector< std::pair< std::string, std::string > >
   (std::vector< std::pair< std::string, std::string > >::const_iterator it,
    PyObject* tuple, Py_ssize_t ind)
{
  // std::vector<std::pair<std:string, std:string> >
  $result = PyList_New((&$1)->size());
  ind = 0;
  for (it = (&$1)->begin(); it !=(&$1)->end(); ++it)
  {
    tuple = Py_BuildValue("ss", it->first.c_str(), it->second.c_str());
    PyList_SetItem($result, ind++, tuple);
  }
}

//-----------------------------------------------------------------------------
// Run the different macros and instantiate the typemaps
//-----------------------------------------------------------------------------
// NOTE: SWIG BUG
// NOTE: Because of bug introduced by SWIG 2.0.5 we cannot use templated
//       versions
// NOTE: of typdefs, which means we need to use unsigned int instead of
//       dolfin::uint
// NOTE: in typemaps
TYPEMAPS_STD_VECTOR_OF_POINTERS(Function)
TYPEMAPS_STD_VECTOR_OF_POINTERS(DirichletBC)
TYPEMAPS_STD_VECTOR_OF_POINTERS(BoundaryCondition)
TYPEMAPS_STD_VECTOR_OF_POINTERS(GenericFunction)
TYPEMAPS_STD_VECTOR_OF_POINTERS(GenericVector)
TYPEMAPS_STD_VECTOR_OF_POINTERS(FunctionSpace)
TYPEMAPS_STD_VECTOR_OF_POINTERS(Parameters)

#if (DOLFIN_SIZE_T==4)
ARGOUT_TYPEMAP_STD_VECTOR_OF_PRIMITIVES(std::size_t, INT32, cells, NPY_UINTP)
ARGOUT_TYPEMAP_STD_VECTOR_OF_PRIMITIVES(std::size_t, INT32, columns, NPY_UINTP)
ARGOUT_TYPEMAP_STD_VECTOR_OF_PRIMITIVES(std::size_t, INT32, dofs, NPY_UINTP)
ARGOUT_TYPEMAP_STD_VECTOR_OF_PRIMITIVES(std::size_t, INT32, local_to_global_map, NPY_UINTP)
#else
ARGOUT_TYPEMAP_STD_VECTOR_OF_PRIMITIVES(std::size_t, INT64, cells, NPY_UINTP)
ARGOUT_TYPEMAP_STD_VECTOR_OF_PRIMITIVES(std::size_t, INT64, columns, NPY_UINTP)
ARGOUT_TYPEMAP_STD_VECTOR_OF_PRIMITIVES(std::size_t, INT64, dofs, NPY_UINTP)
ARGOUT_TYPEMAP_STD_VECTOR_OF_PRIMITIVES(std::size_t, INT64, local_to_global_map, NPY_UINTP)
#endif
ARGOUT_TYPEMAP_STD_VECTOR_OF_PRIMITIVES(double, DOUBLE, , NPY_DOUBLE)

// TYPE       : The primitive type
// TYPE_UPPER : The SWIG specific name of the type used in the array type checks
//              values SWIG use: INT32 for integer, DOUBLE for double aso.
// ARG_NAME   : The name of the argument that will be maped as an 'argout' argument
// NUMPY_TYPE : The type of the NumPy array that will be returned
// TYPE_NAME  : The name of the pointer type, 'double' for 'double', 'uint' for
//              'dolfin::uint'
// DESCR      : The char descriptor of the NumPy type

IN_TYPEMAP_STD_VECTOR_OF_PRIMITIVES(double, DOUBLE, , NPY_DOUBLE, double,
                                    float_)
IN_TYPEMAP_STD_VECTOR_OF_PRIMITIVES(int, INT32, , NPY_INT, int, intc)
IN_TYPEMAP_STD_VECTOR_OF_PRIMITIVES(unsigned int, INT32, , NPY_UINT, uint,
                                    uintc)
#if (DOLFIN_SIZE_T==4)
IN_TYPEMAP_STD_VECTOR_OF_PRIMITIVES(std::size_t, INT32, , NPY_UINTP, uintp,
                                    uintp)
#else
IN_TYPEMAP_STD_VECTOR_OF_PRIMITIVES(std::size_t, INT64, , NPY_UINTP, uintp,
                                    uintp)
#endif

// This typemap handles PETSc index typemap. Untested for 64-bit integers
IN_TYPEMAP_STD_VECTOR_OF_PRIMITIVES(PetscInt, INT32, , NPY_INT, intc, intc)

#if (DOLFIN_SIZE_T==4)
PY_SEQUENCE_OF_SCALARS_TO_VECTOR_OF_PRIMITIVES(std::size_t, INT32,
                                               coloring_type, std_size_t, -1)
PY_SEQUENCE_OF_SCALARS_TO_VECTOR_OF_PRIMITIVES(std::size_t, INT32, value_shape,
                                               std_size_t, -1)
#else
PY_SEQUENCE_OF_SCALARS_TO_VECTOR_OF_PRIMITIVES(std::size_t,INT64,
                                               coloring_type, std_size_t, -1)
PY_SEQUENCE_OF_SCALARS_TO_VECTOR_OF_PRIMITIVES(std::size_t,INT64, value_shape,
                                               std_size_t, -1)
#endif

PY_SEQUENCE_OF_SCALARS_TO_VECTOR_OF_PRIMITIVES(double, DOUBLE, values, double,
                                               -1)
PY_SEQUENCE_OF_SCALARS_TO_VECTOR_OF_PRIMITIVES(double, DOUBLE, dt_stage_offset,
                                               double, -1)
PY_SEQUENCE_OF_SCALARS_TO_VECTOR_OF_PRIMITIVES(double, DOUBLE, ellipsoid_dims,
                                               double, -1)
PY_SEQUENCE_OF_SCALARS_TO_VECTOR_OF_PRIMITIVES(double, DOUBLE, ellipse_dims,
                                               double, -1)
PY_SEQUENCE_OF_SCALARS_TO_VECTOR_OF_PRIMITIVES(int, INT32, jacobian_indices,
                                               int, -1)

OUT_TYPEMAP_STD_VECTOR_OF_PRIMITIVES(double, NPY_DOUBLE)
OUT_TYPEMAP_STD_VECTOR_OF_PRIMITIVES(int, NPY_INT)
OUT_TYPEMAP_STD_VECTOR_OF_PRIMITIVES(unsigned int, NPY_UINT)
OUT_TYPEMAP_STD_VECTOR_OF_PRIMITIVES(std::size_t, NPY_UINTP)

%typemap(out) std::vector<dolfin::la_index>
{
  // OUT_TYPEMAP_STD_VECTOR_OF_PRIMITIVES(dolfin::la_index, NPY_INT32)
  npy_intp adims = $1.size();

  if (sizeof(dolfin::la_index) == 4)
  {
    $result = PyArray_SimpleNew(1, &adims, NPY_INT32);
  }
  else if (sizeof(dolfin::la_index) == 8)
  {
    $result = PyArray_SimpleNew(1, &adims, NPY_INT64);
  }
  else
    SWIG_exception(SWIG_TypeError, "sizeof(dolfin::la_index) incompatible NumPy types");

  dolfin::la_index* data = static_cast<dolfin::la_index*>(PyArray_DATA(reinterpret_cast<PyArrayObject*>($result)));
  std::copy($1.begin(), $1.end(), data);

}

// Need specialized typemap for dolfin::la_index
//OUT_TYPEMAP_STD_VECTOR_OF_PRIMITIVES(dolfin::la_index, dolfin_index)

OUT_TYPEMAP_STD_VECTOR_OF_PRIMITIVES_REFERENCE(double, double)
OUT_TYPEMAP_STD_VECTOR_OF_PRIMITIVES_REFERENCE(int, int)
OUT_TYPEMAP_STD_VECTOR_OF_PRIMITIVES_REFERENCE(unsigned int, uint)
OUT_TYPEMAP_STD_VECTOR_OF_PRIMITIVES_REFERENCE(std::size_t, size_t)

// This typemap handles dolfin::la_index, which can be a 32 or 64 bit integer
OUT_TYPEMAP_STD_VECTOR_OF_PRIMITIVES_REFERENCE(dolfin::la_index, dolfin_index)

IN_TYPEMAP_STD_VECTOR_OF_SMALL_DOLFIN_TYPES(Point)
IN_TYPEMAP_STD_VECTOR_OF_SMALL_DOLFIN_TYPES(MeshEntity)
#if (DOLFIN_SIZE_T==4)
IN_TYPEMAP_STD_VECTOR_OF_STD_VECTOR_OF_PRIMITIVES(std::size_t, INT32, facets,
                                                  std_size_t)
#else
IN_TYPEMAP_STD_VECTOR_OF_STD_VECTOR_OF_PRIMITIVES(std::size_t, INT64, facets,
                                                  std_size_t)
#endif
